…
$Subsetted
# A tibble: 197 x 12
    Tag.ID subset  Transmitt…  Sci.Name   Sex   Bio       Number.of.Detect… Number.of.Stati… Days.Detected
     <int> <fct>   <fct>       <fct>      <fct> <fct>                 <int>            <int>         <int>
 1  4.46e6 2012-12 A69-1303-6… Galeocerd… FEMA… NA                        9                4             1
 2  5.14e7 2012-09 A69-9002-1… Galeocerd… FEMA… FORK LEN…                 1                1             1
 3  5.14e7 2013-04 A69-9002-1… Galeocerd… FEMA… FORK LEN…                14                3             1
 4  5.14e7 2013-06 A69-9002-1… Galeocerd… FEMA… FORK LEN…                63               14             5
 5  5.14e7 2013-07 A69-9002-1… Galeocerd… FEMA… FORK LEN…               154               29            17
 6  5.14e7 2013-08 A69-9002-1… Galeocerd… FEMA… FORK LEN…               113               26            17
 7  5.14e7 2013-10 A69-9002-1… Galeocerd… FEMA… FORK LEN…                16                6             3
 8  5.14e7 2014-02 A69-9002-1… Galeocerd… FEMA… FORK LEN…                 8                2             1
 9  5.14e7 2014-04 A69-9002-1… Galeocerd… FEMA… FORK LEN…                 4                2             1
10  5.14e7 2014-06 A69-9002-1… Galeocerd… FEMA… FORK LEN…               123               15             9
# ... with 187 more rows, and 3 more variables: New.Stations <int>, Days.at.Liberty <int>,
#   Detection.Index <dbl>
…
**Calculating dispersal metrics**
```ruby
## Calculate dispersal metrics
dispSum<-dispersalSummary(ATTdata)
```

`dispersalSummary()` outputs a tibble data frame object with step distances and step bearings calculated for each detection. The number of rows will be equal to the raw detection data, therefore it may take longer to process dispersal metrics for a large number of animals or for large datasets.

```ruby
## Accessing metrics of dispersal
dispSum
# A tibble: 78,753 x 24
   Date.Time           Transmitter    Station.Name Receiver    Latitude Longitude Sensor.Value Sensor.Unit
   <dttm>              <fct>          <fct>        <fct>          <dbl>     <dbl>        <int> <fct>      
 1 2012-12-02 17:24:12 A69-1303-64957 OT 7         VR2W-114582    -23.5      152.           NA NA         
 2 2012-12-02 18:08:14 A69-1303-64957 OT 6         VR2W-114539    -23.5      152.           NA NA         
 3 2012-12-02 18:21:28 A69-1303-64957 The Key Hole VR2W-114555    -23.5      152.           NA NA         
 4 2012-12-02 18:22:19 A69-1303-64957 The Key Hole VR2W-114555    -23.5      152.           NA NA         
 5 2012-12-02 18:23:16 A69-1303-64957 The Key Hole VR2W-114555    -23.5      152.           NA NA         
 6 2012-12-02 18:24:27 A69-1303-64957 The Key Hole VR2W-114555    -23.5      152.           NA NA         
 7 2012-12-02 18:25:25 A69-1303-64957 The Key Hole VR2W-114555    -23.5      152.           NA NA         
 8 2012-12-02 19:01:59 A69-1303-64957 OT 5         VR2W-101787    -23.5      152.           NA NA         
 9 2012-12-02 19:02:50 A69-1303-64957 OT 5         VR2W-101787    -23.5      152.           NA NA         
10 2012-09-18 20:26:14 A69-9002-14797 Heron E1     VR2W-114577    -23.4      152.            6 ADC        
# ... with 78,743 more rows, and 16 more variables: Tag.ID <int>, Sci.Name <fct>, Common.Name <fct>,
#   Tag.Project <fct>, Release.Latitude <dbl>, Release.Longitude <dbl>, Release.Date <date>,
#   Tag.Life <int>, Tag.Status <fct>, Sex <fct>, Bio <fct>, Release.Dispersal <dbl>,
#   Release.Bearing <dbl>, Consecutive.Dispersal <dbl>, Consecutive.Bearing <dbl>,
#   Time.Since.Last.Detection <dbl>
```
…
$`51448633`
# A tibble: 215 x 18
# Groups:   Tag.ID [1]
   Tag.ID   TimeStep.coa        Latitude.coa Longitude.coa Sensor.Value.coa Sensor.Unit Number.of.Stations
   <fct>    <dttm>                     <dbl>         <dbl>            <dbl> <fct>                    <int>
 1 51448633 2012-09-18 20:00:00        -23.4          152.              6   ADC                          1
 2 51448633 2013-04-19 08:00:00        -23.4          152.              0   ADC                          1
 3 51448633 2013-04-19 09:00:00        -23.4          152.             39   ADC                          2
 4 51448633 2013-04-19 11:00:00        -23.4          152.             47   ADC                          2
 5 51448633 2013-04-19 12:00:00        -23.4          152.             55   ADC                          2
 6 51448633 2013-06-01 02:00:00        -23.4          152.             11.2 ADC                          1
 7 51448633 2013-06-01 04:00:00        -23.4          152.              0   ADC                          1
 8 51448633 2013-06-01 05:00:00        -23.4          152.             23   ADC                          1
 9 51448633 2013-06-01 06:00:00        -23.4          152.             40   ADC                          1
10 51448633 2013-06-13 04:00:00        -23.4          152.             44   ADC                          1
# ... with 205 more rows, and 11 more variables: Number.of.Detections <int>, Sci.Name <fct>,
#   Common.Name <fct>, Tag.Project <fct>, Release.Latitude <dbl>, Release.Longitude <dbl>,
#   Release.Date <date>, Tag.Life <int>, Tag.Status <fct>, Sex <fct>, Bio <fct>
```


If you need to access COA estimates for a single indiviual you can access them by specifying which 'Tag.ID' you are looking for, for example if we want the COA estimates for individual `77523307`:

```ruby
COAdata$`77523307`
# A tibble: 4,281 x 18
# Groups:   Tag.ID [1]
   Tag.ID   TimeStep.coa        Latitude.coa Longitude.coa Sensor.Value.coa Sensor.Unit Number.of.Stations
   <fct>    <dttm>                     <dbl>         <dbl>            <dbl> <fct>                    <int>
 1 77523307 2013-08-23 14:00:00        -23.4          152.             25   ADC                          2
 2 77523307 2013-08-23 15:00:00        -23.4          152.             33.4 ADC                          1
 3 77523307 2013-08-23 16:00:00        -23.4          152.             18.5 ADC                          1
 4 77523307 2013-08-24 19:00:00        -23.5          152.             31.6 ADC                          1
 5 77523307 2013-08-24 20:00:00        -23.5          152.             33   ADC                          1
 6 77523307 2013-08-24 22:00:00        -23.5          152.             30   ADC                          1
 7 77523307 2013-08-25 02:00:00        -23.4          152.             11.5 ADC                          1
 8 77523307 2013-08-25 10:00:00        -23.5          152.             34   ADC                          1
 9 77523307 2013-08-25 11:00:00        -23.5          152.             30   ADC                          1
10 77523307 2013-08-25 14:00:00        -23.5          152.             40   ADC                          1
# ... with 4,271 more rows, and 11 more variables: Number.of.Detections <int>, Sci.Name <fct>,
#   Common.Name <fct>, Tag.Project <fct>, Release.Latitude <dbl>, Release.Longitude <dbl>,
#   Release.Date <date>, Tag.Life <int>, Tag.Status <fct>, Sex <fct>, Bio <fct>
…
$Subsetted
# A tibble: 197 x 11
   Tag.ID  subset  Sci.Name  Common.Name Tag.Project   Release.Date Tag.Life Sex   Bio    Number.of.Detec…
   <chr>   <chr>   <fct>     <fct>       <fct>         <date>          <int> <fct> <fct>             <int>
 1 4462716 2012-12 Galeocer… Tiger Shark QLD Large Sh… 2010-08-12        858 FEMA… NA                    9
 2 514486… 2012-09 Galeocer… Tiger Shark AATAMS Heron… 2012-09-19        824 FEMA… FORK …                1
 3 514486… 2013-04 Galeocer… Tiger Shark AATAMS Heron… 2012-09-19        824 FEMA… FORK …               14
 4 514486… 2013-06 Galeocer… Tiger Shark AATAMS Heron… 2012-09-19        824 FEMA… FORK …               63
 5 514486… 2013-07 Galeocer… Tiger Shark AATAMS Heron… 2012-09-19        824 FEMA… FORK …              154
 6 514486… 2013-08 Galeocer… Tiger Shark AATAMS Heron… 2012-09-19        824 FEMA… FORK …              113
 7 514486… 2013-10 Galeocer… Tiger Shark AATAMS Heron… 2012-09-19        824 FEMA… FORK …               16
 8 514486… 2014-02 Galeocer… Tiger Shark AATAMS Heron… 2012-09-19        824 FEMA… FORK …                8
 9 514486… 2014-04 Galeocer… Tiger Shark AATAMS Heron… 2012-09-19        824 FEMA… FORK …                4
10 514486… 2014-06 Galeocer… Tiger Shark AATAMS Heron… 2012-09-19        824 FEMA… FORK …              123
# ... with 187 more rows, and 1 more variable: MCP.100 <dbl>
```
…
