…
```r
## Raw tagdata with least cost distance calculated between each detection (in meters)
least.costUD$tagdata
```

```
## # A tibble: 307 x 9
##    Date.Time           Transmitter Station.Name Receiver Sensor.Value
##    <dttm>              <chr>       <chr>        <chr>    <lgl>       
##  1 2013-01-30 00:56:14 A69-1303-5 Quarantine  VR2W-10 NA          
##  2 2013-01-30 01:03:47 A69-1303-5 Quarantine  VR2W-10 NA          
##  3 2013-01-30 01:07:04 A69-1303-5 Quarantine  VR2W-10 NA          
##  4 2013-01-30 01:12:31 A69-1303-5 Quarantine  VR2W-10 NA          
##  5 2013-01-30 01:16:18 A69-1303-5 Quarantine  VR2W-10 NA          
##  6 2013-01-30 01:19:49 A69-1303-5 Quarantine  VR2W-10 NA          
##  7 2013-01-30 01:22:46 A69-1303-5 Quarantine  VR2W-10 NA          
##  8 2013-01-30 01:30:12 A69-1303-5 Quarantine  VR2W-10 NA          
##  9 2013-01-30 01:33:18 A69-1303-5 Quarantine  VR2W-10 NA          
## 10 2013-01-30 01:35:27 A69-1303-5 Quarantine  VR2W-10 NA          
## #  with 297 more rows, and 4 more variables: Sensor.Unit <lgl>,
## #   Longitude <dbl>, Latitude <dbl>, Distance_m <dbl>
```

```r
## Center of Activity data calculated in the function
least.costUD$coa.data
```

```
## # A tibble: 68 x 18
##    Tag.ID TimeStep.coa        Sensor.Value.coa Sensor.Unit Number.of.Stati
##    <fct>  <dttm>                         <dbl> <lgl>                  <int>
##  1 12956 2013-01-30 00:00:00               NA NA                         1
##  2 12956 2013-01-30 01:00:00               NA NA                         1
##  3 12956 2013-01-30 09:00:00               NA NA                         1
##  4 12956 2013-01-30 11:00:00               NA NA                         1
##  5 12956 2013-01-30 12:00:00               NA NA                         1
##  6 12956 2013-01-30 13:00:00               NA NA                         1
##  7 12956 2013-01-30 15:00:00               NA NA                         1
##  8 12956 2013-01-31 09:00:00               NA NA                         1
##  9 12956 2013-01-31 10:00:00               NA NA                         1
## 10 12956 2013-01-31 11:00:00               NA NA                         1
## #  with 58 more rows, and 13 more variables: Number.of.Detections <int>,
## #   Sci.Name <chr>, Common.Name <chr>, Tag.Project <chr>,
## #   Release.Latitude <dbl>, Release.Longitude <dbl>, Release.Date <date>,
## #   Tag.Life <dbl>, Tag.Status <chr>, Sex <chr>, Bio <chr>,
## #   Longitude <dbl>, Latitude <dbl>
```
…
