Quick guide to use lcDistance functions
…
summary(least.costUD)

##              Length Class       Mode
## tagdata          12 tbl_df      list
## coa.data         19 sf          list
## kernel.areas      2 data.frame  list
## lc.traj           2 sf          list
## UD.raster    329394 RasterLayer S4  
## cost.raster  319704 RasterLayer S4

## Raw tagdata with least cost distance calculated between each detection (in meters)
least.costUD$tagdata

## # A tibble: 307 x 12
##    Date.Time           Transmitter Station.Name Receiver Sensor.Value
##    <dttm>              <chr>       <chr>        <chr>    <lgl>       
##  1 2013-01-30 00:56:14 A69-1303-5 Quarantine  VR2W-10 NA          
##  2 2013-01-30 01:03:47 A69-1303-5 Quarantine  VR2W-10 NA          
##  3 2013-01-30 01:07:04 A69-1303-5 Quarantine  VR2W-10 NA          
##  4 2013-01-30 01:12:31 A69-1303-5 Quarantine  VR2W-10 NA          
##  5 2013-01-30 01:16:18 A69-1303-5 Quarantine  VR2W-10 NA          
##  6 2013-01-30 01:19:49 A69-1303-5 Quarantine  VR2W-10 NA          
##  7 2013-01-30 01:22:46 A69-1303-5 Quarantine  VR2W-10 NA          
##  8 2013-01-30 01:30:12 A69-1303-5 Quarantine  VR2W-10 NA          
##  9 2013-01-30 01:33:18 A69-1303-5 Quarantine  VR2W-10 NA          
## 10 2013-01-30 01:35:27 A69-1303-5 Quarantine  VR2W-10 NA          
## #  with 297 more rows, and 7 more variables: Sensor.Unit <lgl>,
## #   Station.Latitude <dbl>, Station.Longitude <dbl>, Longitude <dbl>,
## #   Latitude <dbl>, Transit.time_sec <dbl>, Distance_m <dbl>

## Center of Activity data calculated in the function
least.costUD$coa.data

## Simple feature collection with 68 features and 18 fields
## geometry type:  POINT
## dimension:      XY
## bbox:           xmin: 1763397 ymin: -3824002 xmax: 1768820 ymax: -3819628
## epsg (SRID):    3577
## proj4string:    +proj=aea +lat_1=-18 +lat_2=-36 +lat_0=0 +lon_0=132 +x_0=0 +y_0=0 +ellps=GRS80 +towgs84=0,0,0,0,0,0,0 +units=m +no_defs
## # A tibble: 68 x 19
## # Groups:   Tag.ID [1]
##    Tag.ID TimeStep.coa        Latitude.coa Longitude.coa Sensor.Value.coa
##    <fct>  <dttm>                     <dbl>         <dbl>            <dbl>
##  1 12956 2013-01-30 00:00:00        -33.8          151.               NA
##  2 12956 2013-01-30 01:00:00        -33.8          151.               NA
##  3 12956 2013-01-30 09:00:00        -33.8          151.               NA
##  4 12956 2013-01-30 11:00:00        -33.8          151.               NA
##  5 12956 2013-01-30 12:00:00        -33.8          151.               NA
##  6 12956 2013-01-30 13:00:00        -33.8          151.               NA
##  7 12956 2013-01-30 15:00:00        -33.8          151.               NA
##  8 12956 2013-01-31 09:00:00        -33.8          151.               NA
##  9 12956 2013-01-31 10:00:00        -33.8          151.               NA
## 10 12956 2013-01-31 11:00:00        -33.8          151.               NA
## #  with 58 more rows, and 14 more variables: Sensor.Unit <lgl>,
## #   Number.of.Stations <int>, Number.of.Detections <int>, Sci.Name <chr>,
## #   Common.Name <chr>, Tag.Project <chr>, Release.Latitude <dbl>,
## #   Release.Longitude <dbl>, Release.Date <date>, Tag.Life <dbl>,
## #   Tag.Status <chr>, Sex <chr>, Bio <chr>, geometry <POINT [m]>
…
